^C:\USERS\THIAG\MUSIC\EXERCICIOS\EX-06\EX-06_VS\EX-06_VISUALSTUDIO\X64\DEBUG\MAIN.OBJ|C:\USERS\THIAG\MUSIC\EXERCICIOS\EX-06\EX-06_VS\EX-06_VISUALSTUDIO\X64\DEBUG\PESSOA.OBJ|C:\USERS\THIAG\MUSIC\EXERCICIOS\EX-06\EX-06_VS\EX-06_VISUALSTUDIO\X64\DEBUG\PRINCIPAL.OBJ
C:\USERS\THIAG\MUSIC\EXERCICIOS\EX-06\EX-06_VS\EX-06_VISUALSTUDIO\X64\DEBUG\EX-06_VISUALSTUDIO.ILK
C:\USERS\THIAG\MUSIC\EXERCICIOS\EX-06\EX-06_VS\EX-06_VISUALSTUDIO\X64\DEBUG\EX-06_VISUALSTUDIO.EXE
C:\USERS\THIAG\MUSIC\EXERCICIOS\EX-06\EX-06_VS\EX-06_VISUALSTUDIO\X64\DEBUG\EX-06_VISUALSTUDIO.PDB
