^C:\USERS\THIAG\MUSIC\EXERCICIOS\EX-12\EX-12_VS\MAIN.CPP|C:\USERS\THIAG\MUSIC\EXERCICIOS\EX-12\EX-12_VS\PRINCIPAL.CPP|C:\USERS\THIAG\MUSIC\EXERCICIOS\EX-12\EX-12_VS\VETOR.CPP
C:\USERS\THIAG\MUSIC\EXERCICIOS\EX-12\EX-12_VS\EX-12_VISUALSTUDIO\X64\DEBUG\VC143.PDB
C:\USERS\THIAG\MUSIC\EXERCICIOS\EX-12\EX-12_VS\EX-12_VISUALSTUDIO\X64\DEBUG\VC143.IDB
C:\USERS\THIAG\MUSIC\EXERCICIOS\EX-12\EX-12_VS\EX-12_VISUALSTUDIO\X64\DEBUG\VETOR.OBJ
C:\USERS\THIAG\MUSIC\EXERCICIOS\EX-12\EX-12_VS\EX-12_VISUALSTUDIO\X64\DEBUG\PRINCIPAL.OBJ
C:\USERS\THIAG\MUSIC\EXERCICIOS\EX-12\EX-12_VS\EX-12_VISUALSTUDIO\X64\DEBUG\MAIN.OBJ
^C:\USERS\THIAG\MUSIC\EXERCICIOS\EX-12\EX-12_VS\MAIN.CPP
C:\USERS\THIAG\MUSIC\EXERCICIOS\EX-12\EX-12_VS\EX-12_VISUALSTUDIO\X64\DEBUG\VC143.PDB
^C:\USERS\THIAG\MUSIC\EXERCICIOS\EX-12\EX-12_VS\PRINCIPAL.CPP
C:\USERS\THIAG\MUSIC\EXERCICIOS\EX-12\EX-12_VS\EX-12_VISUALSTUDIO\X64\DEBUG\VC143.PDB
^C:\USERS\THIAG\MUSIC\EXERCICIOS\EX-12\EX-12_VS\VETOR.CPP
C:\USERS\THIAG\MUSIC\EXERCICIOS\EX-12\EX-12_VS\EX-12_VISUALSTUDIO\X64\DEBUG\VC143.PDB
