^C:\USERS\THIAG\MUSIC\EXERCICIOS\EX-12\EX-12_VS\EX-12_VISUALSTUDIO\X64\DEBUG\MAIN.OBJ|C:\USERS\THIAG\MUSIC\EXERCICIOS\EX-12\EX-12_VS\EX-12_VISUALSTUDIO\X64\DEBUG\PRINCIPAL.OBJ|C:\USERS\THIAG\MUSIC\EXERCICIOS\EX-12\EX-12_VS\EX-12_VISUALSTUDIO\X64\DEBUG\VETOR.OBJ
C:\USERS\THIAG\MUSIC\EXERCICIOS\EX-12\EX-12_VS\EX-12_VISUALSTUDIO\X64\DEBUG\EX-12_VISUALSTUDIO.ILK
C:\USERS\THIAG\MUSIC\EXERCICIOS\EX-12\EX-12_VS\EX-12_VISUALSTUDIO\X64\DEBUG\EX-12_VISUALSTUDIO.EXE
C:\USERS\THIAG\MUSIC\EXERCICIOS\EX-12\EX-12_VS\EX-12_VISUALSTUDIO\X64\DEBUG\EX-12_VISUALSTUDIO.PDB
