^C:\USERS\THIAG\MUSIC\EXERCICIOS\EX-02\EX-02_VS\HORARIO.CPP|C:\USERS\THIAG\MUSIC\EXERCICIOS\EX-02\EX-02_VS\MAIN.CPP|C:\USERS\THIAG\MUSIC\EXERCICIOS\EX-02\EX-02_VS\PRINCIPAL.CPP
C:\USERS\THIAG\MUSIC\EXERCICIOS\EX-02\EX-02_VS\EX-02_VISUALSTUDIO\X64\DEBUG\VC143.PDB
C:\USERS\THIAG\MUSIC\EXERCICIOS\EX-02\EX-02_VS\EX-02_VISUALSTUDIO\X64\DEBUG\VC143.IDB
C:\USERS\THIAG\MUSIC\EXERCICIOS\EX-02\EX-02_VS\EX-02_VISUALSTUDIO\X64\DEBUG\PRINCIPAL.OBJ
C:\USERS\THIAG\MUSIC\EXERCICIOS\EX-02\EX-02_VS\EX-02_VISUALSTUDIO\X64\DEBUG\MAIN.OBJ
C:\USERS\THIAG\MUSIC\EXERCICIOS\EX-02\EX-02_VS\EX-02_VISUALSTUDIO\X64\DEBUG\HORARIO.OBJ
^C:\USERS\THIAG\MUSIC\EXERCICIOS\EX-02\EX-02_VS\HORARIO.CPP
C:\USERS\THIAG\MUSIC\EXERCICIOS\EX-02\EX-02_VS\EX-02_VISUALSTUDIO\X64\DEBUG\VC143.PDB
^C:\USERS\THIAG\MUSIC\EXERCICIOS\EX-02\EX-02_VS\MAIN.CPP
C:\USERS\THIAG\MUSIC\EXERCICIOS\EX-02\EX-02_VS\EX-02_VISUALSTUDIO\X64\DEBUG\VC143.PDB
^C:\USERS\THIAG\MUSIC\EXERCICIOS\EX-02\EX-02_VS\PRINCIPAL.CPP
C:\USERS\THIAG\MUSIC\EXERCICIOS\EX-02\EX-02_VS\EX-02_VISUALSTUDIO\X64\DEBUG\VC143.PDB
