^C:\USERS\THIAG\MUSIC\EXERCICIOS\EX-02\EX-02_VS\EX-02_VISUALSTUDIO\X64\DEBUG\HORARIO.OBJ|C:\USERS\THIAG\MUSIC\EXERCICIOS\EX-02\EX-02_VS\EX-02_VISUALSTUDIO\X64\DEBUG\MAIN.OBJ|C:\USERS\THIAG\MUSIC\EXERCICIOS\EX-02\EX-02_VS\EX-02_VISUALSTUDIO\X64\DEBUG\PRINCIPAL.OBJ
C:\PROGRAM FILES (X86)\WINDOWS KITS\10\LIB\10.0.19041.0\UM\X64\KERNEL32.LIB
C:\PROGRAM FILES (X86)\WINDOWS KITS\10\LIB\10.0.19041.0\UM\X64\USER32.LIB
C:\PROGRAM FILES (X86)\WINDOWS KITS\10\LIB\10.0.19041.0\UM\X64\GDI32.LIB
C:\PROGRAM FILES (X86)\WINDOWS KITS\10\LIB\10.0.19041.0\UM\X64\WINSPOOL.LIB
C:\PROGRAM FILES (X86)\WINDOWS KITS\10\LIB\10.0.19041.0\UM\X64\COMDLG32.LIB
C:\PROGRAM FILES (X86)\WINDOWS KITS\10\LIB\10.0.19041.0\UM\X64\ADVAPI32.LIB
C:\PROGRAM FILES (X86)\WINDOWS KITS\10\LIB\10.0.19041.0\UM\X64\SHELL32.LIB
C:\PROGRAM FILES (X86)\WINDOWS KITS\10\LIB\10.0.19041.0\UM\X64\OLE32.LIB
C:\PROGRAM FILES (X86)\WINDOWS KITS\10\LIB\10.0.19041.0\UM\X64\OLEAUT32.LIB
C:\PROGRAM FILES (X86)\WINDOWS KITS\10\LIB\10.0.19041.0\UM\X64\UUID.LIB
C:\PROGRAM FILES (X86)\WINDOWS KITS\10\LIB\10.0.19041.0\UM\X64\ODBC32.LIB
C:\PROGRAM FILES (X86)\WINDOWS KITS\10\LIB\10.0.19041.0\UM\X64\ODBCCP32.LIB
C:\USERS\THIAG\MUSIC\EXERCICIOS\EX-02\EX-02_VS\EX-02_VISUALSTUDIO\X64\DEBUG\HORARIO.OBJ
C:\USERS\THIAG\MUSIC\EXERCICIOS\EX-02\EX-02_VS\EX-02_VISUALSTUDIO\X64\DEBUG\MAIN.OBJ
C:\USERS\THIAG\MUSIC\EXERCICIOS\EX-02\EX-02_VS\EX-02_VISUALSTUDIO\X64\DEBUG\PRINCIPAL.OBJ
C:\WINDOWS\GLOBALIZATION\SORTING\SORTDEFAULT.NLS
C:\PROGRAM FILES\MICROSOFT VISUAL STUDIO\2022\COMMUNITY\VC\TOOLS\MSVC\14.31.31103\LIB\X64\MSVCPRTD.LIB
C:\PROGRAM FILES\MICROSOFT VISUAL STUDIO\2022\COMMUNITY\VC\TOOLS\MSVC\14.31.31103\LIB\X64\MSVCRTD.LIB
C:\PROGRAM FILES\MICROSOFT VISUAL STUDIO\2022\COMMUNITY\VC\TOOLS\MSVC\14.31.31103\LIB\X64\OLDNAMES.LIB
C:\PROGRAM FILES\MICROSOFT VISUAL STUDIO\2022\COMMUNITY\VC\TOOLS\MSVC\14.31.31103\LIB\X64\VCRUNTIMED.LIB
C:\PROGRAM FILES (X86)\WINDOWS KITS\10\LIB\10.0.19041.0\UCRT\X64\UCRTD.LIB
C:\PROGRAM FILES\MICROSOFT VISUAL STUDIO\2022\COMMUNITY\VC\TOOLS\MSVC\14.31.31103\BIN\HOSTX64\X64\CVTRES.EXE
C:\WINDOWS\SYSTEM32\TZRES.DLL
C:\USERS\THIAG\MUSIC\EXERCICIOS\EX-02\EX-02_VS\EX-02_VISUALSTUDIO\X64\DEBUG\VC143.PDB
