^C:\USERS\THIAG\MUSIC\EXERCICIOS\EX-04\EX-04_VS\EX-04_VISUALSTUDIO\X64\DEBUG\CAIXA.OBJ|C:\USERS\THIAG\MUSIC\EXERCICIOS\EX-04\EX-04_VS\EX-04_VISUALSTUDIO\X64\DEBUG\EXTESTADORDECAIXA.OBJ|C:\USERS\THIAG\MUSIC\EXERCICIOS\EX-04\EX-04_VS\EX-04_VISUALSTUDIO\X64\DEBUG\MAIN.OBJ
C:\USERS\THIAG\MUSIC\EXERCICIOS\EX-04\EX-04_VS\EX-04_VISUALSTUDIO\X64\DEBUG\EX-04_VISUALSTUDIO.ILK
C:\USERS\THIAG\MUSIC\EXERCICIOS\EX-04\EX-04_VS\EX-04_VISUALSTUDIO\X64\DEBUG\EX-04_VISUALSTUDIO.EXE
C:\USERS\THIAG\MUSIC\EXERCICIOS\EX-04\EX-04_VS\EX-04_VISUALSTUDIO\X64\DEBUG\EX-04_VISUALSTUDIO.PDB
