^C:\USERS\THIAG\MUSIC\EXERCICIOS\EX-08\EX-08_VS\EX-08_VISUALSTUDIO\X64\DEBUG\CARRO.OBJ|C:\USERS\THIAG\MUSIC\EXERCICIOS\EX-08\EX-08_VS\EX-08_VISUALSTUDIO\X64\DEBUG\MAIN.OBJ|C:\USERS\THIAG\MUSIC\EXERCICIOS\EX-08\EX-08_VS\EX-08_VISUALSTUDIO\X64\DEBUG\PRINCIPAL.OBJ
C:\USERS\THIAG\MUSIC\EXERCICIOS\EX-08\EX-08_VS\EX-08_VISUALSTUDIO\X64\DEBUG\EX-08_VISUALSTUDIO.ILK
C:\USERS\THIAG\MUSIC\EXERCICIOS\EX-08\EX-08_VS\EX-08_VISUALSTUDIO\X64\DEBUG\EX-08_VISUALSTUDIO.EXE
C:\USERS\THIAG\MUSIC\EXERCICIOS\EX-08\EX-08_VS\EX-08_VISUALSTUDIO\X64\DEBUG\EX-08_VISUALSTUDIO.PDB
