^C:\USERS\THIAG\MUSIC\EXERCICIOS\EX-10\EX-10_VS\COLABORADOR.CPP|C:\USERS\THIAG\MUSIC\EXERCICIOS\EX-10\EX-10_VS\MAIN.CPP|C:\USERS\THIAG\MUSIC\EXERCICIOS\EX-10\EX-10_VS\PRINCIPAL.CPP
C:\USERS\THIAG\MUSIC\EXERCICIOS\EX-10\EX-10_VS\EX-10_VISUALSTUDIO\X64\DEBUG\VC143.PDB
C:\USERS\THIAG\MUSIC\EXERCICIOS\EX-10\EX-10_VS\EX-10_VISUALSTUDIO\X64\DEBUG\VC143.IDB
C:\USERS\THIAG\MUSIC\EXERCICIOS\EX-10\EX-10_VS\EX-10_VISUALSTUDIO\X64\DEBUG\PRINCIPAL.OBJ
C:\USERS\THIAG\MUSIC\EXERCICIOS\EX-10\EX-10_VS\EX-10_VISUALSTUDIO\X64\DEBUG\MAIN.OBJ
C:\USERS\THIAG\MUSIC\EXERCICIOS\EX-10\EX-10_VS\EX-10_VISUALSTUDIO\X64\DEBUG\COLABORADOR.OBJ
^C:\USERS\THIAG\MUSIC\EXERCICIOS\EX-10\EX-10_VS\COLABORADOR.CPP
C:\USERS\THIAG\MUSIC\EXERCICIOS\EX-10\EX-10_VS\EX-10_VISUALSTUDIO\X64\DEBUG\VC143.PDB
^C:\USERS\THIAG\MUSIC\EXERCICIOS\EX-10\EX-10_VS\MAIN.CPP
C:\USERS\THIAG\MUSIC\EXERCICIOS\EX-10\EX-10_VS\EX-10_VISUALSTUDIO\X64\DEBUG\VC143.PDB
^C:\USERS\THIAG\MUSIC\EXERCICIOS\EX-10\EX-10_VS\PRINCIPAL.CPP
C:\USERS\THIAG\MUSIC\EXERCICIOS\EX-10\EX-10_VS\EX-10_VISUALSTUDIO\X64\DEBUG\VC143.PDB
