^C:\USERS\THIAG\MUSIC\EXERCICIOS\EX-03\EX-03_VS\CAIXA.CPP|C:\USERS\THIAG\MUSIC\EXERCICIOS\EX-03\EX-03_VS\EXTESTADORDECAIXA.CPP|C:\USERS\THIAG\MUSIC\EXERCICIOS\EX-03\EX-03_VS\MAIN.CPP
C:\USERS\THIAG\MUSIC\EXERCICIOS\EX-03\EX-03_VS\EX-03_VISUALSTUDIO\X64\DEBUG\VC143.PDB
C:\USERS\THIAG\MUSIC\EXERCICIOS\EX-03\EX-03_VS\EX-03_VISUALSTUDIO\X64\DEBUG\VC143.IDB
C:\USERS\THIAG\MUSIC\EXERCICIOS\EX-03\EX-03_VS\EX-03_VISUALSTUDIO\X64\DEBUG\MAIN.OBJ
C:\USERS\THIAG\MUSIC\EXERCICIOS\EX-03\EX-03_VS\EX-03_VISUALSTUDIO\X64\DEBUG\EXTESTADORDECAIXA.OBJ
C:\USERS\THIAG\MUSIC\EXERCICIOS\EX-03\EX-03_VS\EX-03_VISUALSTUDIO\X64\DEBUG\CAIXA.OBJ
^C:\USERS\THIAG\MUSIC\EXERCICIOS\EX-03\EX-03_VS\CAIXA.CPP
C:\USERS\THIAG\MUSIC\EXERCICIOS\EX-03\EX-03_VS\EX-03_VISUALSTUDIO\X64\DEBUG\VC143.PDB
^C:\USERS\THIAG\MUSIC\EXERCICIOS\EX-03\EX-03_VS\EXTESTADORDECAIXA.CPP
C:\USERS\THIAG\MUSIC\EXERCICIOS\EX-03\EX-03_VS\EX-03_VISUALSTUDIO\X64\DEBUG\VC143.PDB
^C:\USERS\THIAG\MUSIC\EXERCICIOS\EX-03\EX-03_VS\MAIN.CPP
C:\USERS\THIAG\MUSIC\EXERCICIOS\EX-03\EX-03_VS\EX-03_VISUALSTUDIO\X64\DEBUG\VC143.PDB
